9 U.S. Census Bureau | Data Wrangling
…
For ACS data, the year argument of tidycensus functions refers to the end-year of the sample period. For example, if you want to use a 5-year ACS that ended in 2019, set year = 2019. As of July 2021, tidycensus supports 5-year ACS end-years 2009 through 2019, and 1-year ACS end-years 2005 through 2019.

9.2.2 Find variables

Data from both the ACS and decennial census capture many variables. The 2010 decennial census includes 8,959, while the 2019 5-year ACS includes 27,040!

A code, like H001001 or P011014, identifies each of these variables. To use tidycensus, you’ll need to determine the codes of your variables of interest. We’ll use the function tidycensus::load_variables() to find ACS or decennial census variables and their accompanying codes.

load_variables() returns a tibble of all variable codes from a given dataset, alongside brief descriptions. We’ll load the variables from the 2019 5-year ACS as an example.

all_vars_acs5 <- 
  load_variables(year = 2019, dataset = "acs5")

all_vars_acs5
#> # A tibble: 27,040 × 3
#>   name       label                                   concept   
#>   <chr>      <chr>                                   <chr>     
#> 1 B01001_001 Estimate!!Total:                        SEX BY AGE
#> 2 B01001_002 Estimate!!Total:!!Male:                 SEX BY AGE
#> 3 B01001_003 Estimate!!Total:!!Male:!!Under 5 years  SEX BY AGE
#> 4 B01001_004 Estimate!!Total:!!Male:!!5 to 9 years   SEX BY AGE
#> 5 B01001_005 Estimate!!Total:!!Male:!!10 to 14 years SEX BY AGE
#> 6 B01001_006 Estimate!!Total:!!Male:!!15 to 17 years SEX BY AGE
#> # … with 27,034 more rows

load_variables() returns a tibble with the three variables:

name: The variable code.

label: A description of the variable.

concept: A broader categorization.

Let’s take a closer look at just one concept: sex by age.

all_vars_acs5 %>% 
  filter(concept == "SEX BY AGE")
#> # A tibble: 49 × 3
#>   name       label                                   concept   
#>   <chr>      <chr>                                   <chr>     
#> 1 B01001_001 Estimate!!Total:                        SEX BY AGE
#> 2 B01001_002 Estimate!!Total:!!Male:                 SEX BY AGE
#> 3 B01001_003 Estimate!!Total:!!Male:!!Under 5 years  SEX BY AGE
#> 4 B01001_004 Estimate!!Total:!!Male:!!5 to 9 years   SEX BY AGE
#> 5 B01001_005 Estimate!!Total:!!Male:!!10 to 14 years SEX BY AGE
#> 6 B01001_006 Estimate!!Total:!!Male:!!15 to 17 years SEX BY AGE
#> # … with 43 more rows

49 variables belong to the “SEX BY AGE” concept. Each row refers to a variable under that concept.

This way of thinking about variables can be a bit confusing at first. The Estimate!!Total variable captures the number of people for whom sex by age data is available. Estimate!!Total!!Male captures the total number of males, while Estimate!!Total!!Male!!Under 5 years captures the total number of males under 5 years old.

This is a bit more intuitive for concepts like "SEX BY AGE (ASIAN ALONE)".

all_vars_acs5 %>% 
  filter(concept == "SEX BY AGE (ASIAN ALONE)")
#> # A tibble: 31 × 3
#>   name        label                                   concept                 
#>   <chr>       <chr>                                   <chr>                   
#> 1 B01001D_001 Estimate!!Total:                        SEX BY AGE (ASIAN ALONE)
#> 2 B01001D_002 Estimate!!Total:!!Male:                 SEX BY AGE (ASIAN ALONE)
#> 3 B01001D_003 Estimate!!Total:!!Male:!!Under 5 years  SEX BY AGE (ASIAN ALONE)
#> 4 B01001D_004 Estimate!!Total:!!Male:!!5 to 9 years   SEX BY AGE (ASIAN ALONE)
#> 5 B01001D_005 Estimate!!Total:!!Male:!!10 to 14 years SEX BY AGE (ASIAN ALONE)
#> 6 B01001D_006 Estimate!!Total:!!Male:!!15 to 17 years SEX BY AGE (ASIAN ALONE)
#> # … with 25 more rows
…
For get_acs(), year indicates the end-year for the ACS estimates. If you want ACS estimates from 2015-2019, set year = 2019. By default, get_acs() uses the 5-year estimates. You can use other estimates by specifying survey.

df_acs <-
  get_acs(
    geography = "state", 
    variables = vars_acs5, 
    year = 2019
  )
#> Getting data from the 2015-2019 5-year ACS

df_acs
#> # A tibble: 104 × 5
#>   GEOID NAME    variable      estimate   moe
#>   <chr> <chr>   <chr>            <dbl> <dbl>
#> 1 01    Alabama median_income    26231   139
#> 2 01    Alabama median_rent        792     5
#> 3 02    Alaska  median_income    34018   452
#> 4 02    Alaska  median_rent       1244    13
#> 5 04    Arizona median_income    30216    88
#> 6 04    Arizona median_rent       1052     4
#> # … with 98 more rows

get_acs() will return the estimate and margin of error (moe) for each variable. Because the ACS values are estimates, the Census Bureau calculates a margin of error for most variables.

To pivot the data into a wider format, we can use pivot_wider().

df_acs %>% 
  pivot_wider(
    names_from = variable, 
    values_from = c(estimate, moe)
  )
#> # A tibble: 52 × 6
#>   GEOID NAME       estimate_median… estimate_median… moe_median_inco… moe_median_rent
#>   <chr> <chr>                 <dbl>            <dbl>            <dbl>           <dbl>
#> 1 01    Alabama               26231              792              139               5
#> 2 02    Alaska                34018             1244              452              13
#> 3 04    Arizona               30216             1052               88               4
#> 4 05    Arkansas              25758              745              139               4
#> 5 06    California            31960             1503               65               4
#> 6 08    Colorado              35887             1271              175               6
#> # … with 46 more rows
…
Then, we’ll use get_decennial() to access the data. This time, we’ll get the data at the county level. Here, year is the year of the decennial census.

df_decennial <-
  get_decennial(
    geography = "county", 
    variables = vars_decennial, 
    year = 2010
  )
#> Getting data from the 2010 decennial Census
#> Using Census Summary File 1

df_decennial
#> # A tibble: 6,442 × 4
#>   GEOID NAME                       variable  value
#>   <chr> <chr>                      <chr>     <dbl>
#> 1 05131 Sebastian County, Arkansas pop_urban 43495
#> 2 05133 Sevier County, Arkansas    pop_urban  2115
#> 3 05135 Sharp County, Arkansas     pop_urban  2177
#> 4 05137 Stone County, Arkansas     pop_urban     0
#> 5 05139 Union County, Arkansas     pop_urban  8830
#> 6 05141 Van Buren County, Arkansas pop_urban     0
#> # … with 6,436 more rows

Again, we can use pivot_wider().

df_decennial %>% 
  pivot_wider(names_from = variable, values_from = value)
#> # A tibble: 3,221 × 4
#>   GEOID NAME                       pop_urban pop_rural
#>   <chr> <chr>                          <dbl>     <dbl>
#> 1 05131 Sebastian County, Arkansas     43495     11156
#> 2 05133 Sevier County, Arkansas         2115      4772
#> 3 05135 Sharp County, Arkansas          2177      7645
#> 4 05137 Stone County, Arkansas             0      6712
#> 5 05139 Union County, Arkansas          8830     10823
#> 6 05141 Van Buren County, Arkansas         0     10345
#> # … with 3,215 more rows

Now, you can use your data however you wish. Note that, if you’re interested in geospatial aspects of ACS or decennial census data, we recommend using our ussf package for boundaries. You can install the package with the following command.

remotes::install_github("dcl-docs/ussf")

You can join your ACS or decennial census data with the result of ussf::boundaries(), using GEOID as a unique identifier.

df_acs %>% 
  left_join(
    ussf::boundaries(geography = "state") %>% select(GEOID), 
    by = "GEOID"
  )
#> old-style crs object detected; please recreate object with a recent sf::st_crs()
#> # A tibble: 104 × 6
#>   GEOID NAME    variable      estimate   moe                            geometry
#>   <chr> <chr>   <chr>            <dbl> <dbl>                  <MULTIPOLYGON [m]>
#> 1 01    Alabama median_income    26231   139 (((708460 -598743, 708114 -594376,…
#> 2 01    Alabama median_rent        792     5 (((708460 -598743, 708114 -594376,…
#> 3 02    Alaska  median_income    34018   452 (((-1518019 -1148523, -1516049 -11…
#> 4 02    Alaska  median_rent       1244    13 (((-1518019 -1148523, -1516049 -11…
#> 5 04    Arizona median_income    30216    88 (((-1743454 -375819, -1743828 -373…
#> 6 04    Arizona median_rent       1052     4 (((-1743454 -375819, -1743828 -373…
#> # … with 98 more rows
…
9.3.3 Read the data into R

The next step is to read your data into R. We’ll use the same process introduced in API Basics. Let’s use a request that gets population data for all states, by year.

request <- 
  "https://api.census.gov/data/2018/pep/population?get=GEONAME,DATE_CODE,DATE_DESC,POP&for=state:*"

response <-
  request %>% 
  jsonlite::fromJSON() %>% 
  as_tibble() %>% 
  janitor::row_to_names(row_number = 1)

response
#> # A tibble: 572 × 5
#>   GEONAME DATE_CODE DATE_DESC                          POP     state
#>   <chr>   <chr>     <chr>                              <chr>   <chr>
#> 1 Alabama 1         4/1/2010 Census population         4779736 01   
#> 2 Alabama 2         4/1/2010 population estimates base 4780138 01   
#> 3 Alabama 3         7/1/2010 population estimate       4785448 01   
#> 4 Alabama 4         7/1/2011 population estimate       4798834 01   
#> 5 Alabama 5         7/1/2012 population estimate       4815564 01   
#> 6 Alabama 6         7/1/2013 population estimate       4830460 01   
#> # … with 566 more rows
…
