…
```r
id_gapminder
#> [1] "1BzfL0kZUz1TsI5zxJF1WNF01IxvC67FbOJUiiGMZ_mQ"
```

Now, we can use the googlesheets4 function `read_sheet()` to read in the data. `read_sheet()`'s first argument, `ss`, takes the sheet ID.


```r
read_sheet(ss = id_gapminder)
#> ✓ Reading from "test-gs-gapminder".
#> ✓ Range 'Africa'.
#> # A tibble: 624 × 6
#>   country continent  year lifeExp      pop gdpPercap
#>   <chr>   <chr>     <dbl>   <dbl>    <dbl>     <dbl>
#> 1 Algeria Africa     1952    43.1  9279525     2449.
#> 2 Algeria Africa     1957    45.7 10270856     3014.
#> 3 Algeria Africa     1962    48.3 11000948     2551.
#> 4 Algeria Africa     1967    51.4 12760499     3247.
#> 5 Algeria Africa     1972    54.5 14760787     4183.
#> 6 Algeria Africa     1977    58.0 17152804     4910.
#> # … with 618 more rows
```
…
```r
sheet_names(ss = id_gapminder)
#> [1] "Africa"   "Americas" "Asia"     "Europe"   "Oceania"
```

By default, `read_sheet()` reads  in the first sheet. Here, that's the Africa sheet. If we want to read in Asia, we can specify the `sheet` argument.


```r
read_sheet(ss = id_gapminder, sheet = "Asia")
#> ✓ Reading from "test-gs-gapminder".
#> ✓ Range ''Asia''.
#> # A tibble: 396 × 6
#>   country     continent  year lifeExp      pop gdpPercap
#>   <chr>       <chr>     <dbl>   <dbl>    <dbl>     <dbl>
#> 1 Afghanistan Asia       1952    28.8  8425333      779.
#> 2 Afghanistan Asia       1957    30.3  9240934      821.
#> 3 Afghanistan Asia       1962    32.0 10267083      853.
#> 4 Afghanistan Asia       1967    34.0 11537966      836.
#> 5 Afghanistan Asia       1972    36.1 13079460      740.
#> 6 Afghanistan Asia       1977    38.4 14880372      786.
#> # … with 390 more rows
```
…
