1 Basics | Data Wrangling
…
The first argument is a data frame.

The subsequent arguments describe what to do with the data frame.

The result is a new data frame.

Together these properties make it easy to chain together multiple simple steps to achieve a complex result. Let’s dive in and see how these verbs work.

1.2 Filter rows with filter()

filter() allows you to subset observations based on their values. The first argument is the name of the data frame. The second and subsequent arguments are the expressions that filter the data frame. For example, we can select all flights on January 1st with:

flights %>% 
  filter(month == 1, day == 1)
#> # A tibble: 842 × 19
#>    year month   day dep_time sched_dep_time dep_delay arr_time sched_arr_time
#>   <int> <int> <int>    <int>          <int>     <dbl>    <int>          <int>
#> 1  2013     1     1      517            515         2      830            819
#> 2  2013     1     1      533            529         4      850            830
#> 3  2013     1     1      542            540         2      923            850
#> 4  2013     1     1      544            545        -1     1004           1022
#> 5  2013     1     1      554            600        -6      812            837
#> 6  2013     1     1      554            558        -4      740            728
#> # … with 836 more rows, and 11 more variables: arr_delay <dbl>, carrier <chr>,
#> #   flight <int>, tailnum <chr>, origin <chr>, dest <chr>, air_time <dbl>,
#> #   distance <dbl>, hour <dbl>, minute <dbl>, time_hour <dttm>
…
flights_small <- 
  flights %>% 
  select( 
    year:day, 
    ends_with("delay"), 
    distance, 
    air_time
  )

flights_small %>% 
  mutate(
    gain = arr_delay - dep_delay,
    speed = 60 * distance / air_time
  )
#> # A tibble: 336,776 × 9
#>    year month   day dep_delay arr_delay distance air_time  gain speed
#>   <int> <int> <int>     <dbl>     <dbl>    <dbl>    <dbl> <dbl> <dbl>
#> 1  2013     1     1         2        11     1400      227     9  370.
#> 2  2013     1     1         4        20     1416      227    16  374.
#> 3  2013     1     1         2        33     1089      160    31  408.
#> 4  2013     1     1        -1       -18     1576      183   -17  517.
#> 5  2013     1     1        -6       -25      762      116   -19  394.
#> 6  2013     1     1        -4        12      719      150    16  288.
#> # … with 336,770 more rows

Note that you can refer to columns that you’ve just created:

flights_small %>% 
  mutate(
    gain = arr_delay - dep_delay,
    hours = air_time / 60,
    gain_per_hour = gain / hours
  )
#> # A tibble: 336,776 × 10
#>    year month   day dep_delay arr_delay distance air_time  gain hours
#>   <int> <int> <int>     <dbl>     <dbl>    <dbl>    <dbl> <dbl> <dbl>
#> 1  2013     1     1         2        11     1400      227     9  3.78
#> 2  2013     1     1         4        20     1416      227    16  3.78
#> 3  2013     1     1         2        33     1089      160    31  2.67
#> 4  2013     1     1        -1       -18     1576      183   -17  3.05
#> 5  2013     1     1        -6       -25      762      116   -19  1.93
#> 6  2013     1     1        -4        12      719      150    16  2.5 
#> # … with 336,770 more rows, and 1 more variable: gain_per_hour <dbl>
…
(na.rm = TRUE removes the missing values so they don’t affect the final summary.)

summarize() is not terribly useful unless we pair it with group_by(). This changes the unit of analysis from the complete dataset to individual groups. Then, when you use the dplyr verbs on a grouped data frame, they’ll be automatically applied “by group.” For example, if we applied exactly the same code to a data frame grouped by date, we get the average delay per date:

by_day <- 
  flights %>% 
  group_by(year, month, day)

by_day %>% 
  summarize(delay = mean(dep_delay, na.rm = TRUE))
#> # A tibble: 365 × 4
#> # Groups:   year, month [12]
#>    year month   day delay
#>   <int> <int> <int> <dbl>
#> 1  2013     1     1 11.5 
#> 2  2013     1     2 13.9 
#> 3  2013     1     3 11.0 
#> 4  2013     1     4  8.95
#> 5  2013     1     5  5.73
#> 6  2013     1     6  7.15
#> # … with 359 more rows
…
