3 Parsing | Data Wrangling
…
3.2 read_csv()

The workhorse for reading in CSV files is called read_csv(). You give it a path to a CSV file and it gives you back a tibble:

heights <- read_csv("data/heights.csv")
#> Rows: 1192 Columns: 6
#> ── Column specification ────────────────────────────────────────────────────────
#> Delimiter: ","
#> chr (2): sex, race
#> dbl (4): earn, height, ed, age
#> 
#> ℹ Use `spec()` to retrieve the full column specification for this data.
#> ℹ Specify the column types or set `show_col_types = FALSE` to quiet this message.
heights
#> # A tibble: 1,192 × 6
#>    earn height sex       ed   age race 
#>   <dbl>  <dbl> <chr>  <dbl> <dbl> <chr>
#> 1 50000   74.4 male      16    45 white
#> 2 60000   65.5 female    16    58 white
#> 3 30000   63.6 female    16    29 white
#> 4 50000   63.1 female    16    91 other
#> 5 51000   63.4 female    17    39 white
#> 6  9000   64.4 female    15    26 white
#> # … with 1,186 more rows
…
