5 Basic pivoting | Data Wrangling
…
The data is now tidy! pivot_longer() has many optional arguments, but cols, names_to, and values_to will cover most of your use-cases. The Missing values section below and the Advanced pivoting chapter cover some more specialized uses of pivot_longer().

Here’s another eagle-related example. example_eagle_pairs contains data on the number of observed bald eagle breeding pairs across years and states.

example_eagle_pairs
#> # A tibble: 48 × 12
#>   state       state_abbr `1997` `1998` `1999` `2000` `2001` `2002` `2003` `2004`
#>   <chr>       <chr>       <int>  <int>  <int>  <int>  <int>  <int>  <int>  <int>
#> 1 Alabama     AL             22     23     26     27     NA     NA     47     NA
#> 2 Arizona     AZ             34     36     38     37     37     43     43     NA
#> 3 Arkansas    AR             24     29     34     36     NA     NA     36     42
#> 4 California  CA            142    148    151     NA     NA     NA    160     NA
#> 5 Colorado    CO             29     27     29     42     45     NA     NA     NA
#> 6 Connecticut CT              2      2      2      4      6      8      8     NA
#> # … with 42 more rows, and 2 more variables: 2005 <int>, 2006 <int>

Again, the data isn’t tidy because values are spread across column names. We need to pivot all the year columns (1997 through 2006), moving their names into a column named "year" and their values into a column named "num_nests".

Here’s the full call to pivot_longer():

example_eagle_pairs %>% 
  pivot_longer(
    cols = !starts_with("state"), 
    names_to = "year",
    values_to = "num_pairs"
  )
#> # A tibble: 480 × 4
#>   state   state_abbr year  num_pairs
#>   <chr>   <chr>      <chr>     <int>
#> 1 Alabama AL         1997         22
#> 2 Alabama AL         1998         23
#> 3 Alabama AL         1999         26
#> 4 Alabama AL         2000         27
#> 5 Alabama AL         2001         NA
#> 6 Alabama AL         2002         NA
#> # … with 474 more rows
…
Again, supply the name of the column unquoted.

We’re done! The tibble is now transformed back into its original form.

Let’s see an example of a tibble that actually does need pivot_wider() to be tidy. example_acs_1 contains data from the 2013-2017 American Community Survey, obtained through the tidycensus package.

example_acs_1
#> # A tibble: 156 × 4
#>   geoid name    variable    estimate
#>   <chr> <chr>   <chr>          <dbl>
#> 1 01    Alabama pop_housed   4731852
#> 2 01    Alabama pop_renter   1434765
#> 3 01    Alabama median_rent      747
#> 4 02    Alaska  pop_housed    710743
#> 5 02    Alaska  pop_renter    241484
#> 6 02    Alaska  median_rent     1200
#> # … with 150 more rows
…
example_acs_1 %>% 
  distinct(variable)
#> # A tibble: 3 × 1
#>   variable   
#>   <chr>      
#> 1 pop_housed 
#> 2 pop_renter 
#> 3 median_rent

Each of these values is actually a variable whose values are currently stored in estimate. To pivot, we’ll set names_from to variable and values_from to estimate.

example_acs_1 %>% 
  pivot_wider(names_from = variable, values_from = estimate)
#> # A tibble: 52 × 5
#>   geoid name       pop_housed pop_renter median_rent
#>   <chr> <chr>           <dbl>      <dbl>       <dbl>
#> 1 01    Alabama       4731852    1434765         747
#> 2 02    Alaska         710743     241484        1200
#> 3 04    Arizona       6656124    2460534         972
#> 4 05    Arkansas      2894098     965690         709
#> 5 06    California   38168482   17066023        1358
#> 6 08    Colorado      5318396    1782975        1125
#> # … with 46 more rows
…
The United Nations compiles data on the origin and destination countries of international migrants. example_migration contains a subset of this data from 2017. The countries in the column names represent countries of origin, and the countries in dest represent destination countries.

example_migration
#> # A tibble: 3 × 6
#>   dest     Afghanistan Canada India Japan `South Africa`
#>   <chr>    <chr>       <chr>  <chr> <chr> <chr>         
#> 1 Albania  <NA>        913    <NA>  <NA>  <NA>          
#> 2 Bulgaria 483         713    281   213   260           
#> 3 Romania  <NA>        <NA>   102   <NA>  <NA>

Again, the data isn’t tidy. Afghanistan, Canada, etc. are values of a variable, not variables themselves. We can use pivot_longer() to tidy the data.

example_migration %>% 
  pivot_longer(cols = !dest, names_to = "origin", values_to = "migrants")
#> # A tibble: 15 × 3
#>   dest     origin       migrants
#>   <chr>    <chr>        <chr>   
#> 1 Albania  Afghanistan  <NA>    
#> 2 Albania  Canada       913     
#> 3 Albania  India        <NA>    
#> 4 Albania  Japan        <NA>    
#> 5 Albania  South Africa <NA>    
#> 6 Bulgaria Afghanistan  483     
#> # … with 9 more rows

There are a lot of NAs in the data. However, they don’t actually represent missing values. Someone didn’t forget to measure the number of migrants Afghanistan to Albania—there just weren’t any. It doesn’t really make sense to include these rows in our new, tidied dataset. We can use values_drop_na to exclude these rows.

example_migration %>% 
  pivot_longer(
    cols = !dest, 
    names_to = "origin", 
    values_to = "migrants", 
    values_drop_na = TRUE
  ) 
#> # A tibble: 7 × 3
#>   dest     origin       migrants
#>   <chr>    <chr>        <chr>   
#> 1 Albania  Canada       913     
#> 2 Bulgaria Afghanistan  483     
#> 3 Bulgaria Canada       713     
#> 4 Bulgaria India        281     
#> 5 Bulgaria Japan        213     
#> 6 Bulgaria South Africa 260     
#> # … with 1 more row
…
In contrast, example_eagle_pairs’s NAs aren’t structural and represent actual missing data. Paired Alabamian eagles probably existed in 2001, but the data isn’t there.

example_eagle_pairs
#> # A tibble: 48 × 12
#>   state       state_abbr `1997` `1998` `1999` `2000` `2001` `2002` `2003` `2004`
#>   <chr>       <chr>       <int>  <int>  <int>  <int>  <int>  <int>  <int>  <int>
#> 1 Alabama     AL             22     23     26     27     NA     NA     47     NA
#> 2 Arizona     AZ             34     36     38     37     37     43     43     NA
#> 3 Arkansas    AR             24     29     34     36     NA     NA     36     42
#> 4 California  CA            142    148    151     NA     NA     NA    160     NA
#> 5 Colorado    CO             29     27     29     42     45     NA     NA     NA
#> 6 Connecticut CT              2      2      2      4      6      8      8     NA
#> # … with 42 more rows, and 2 more variables: 2005 <int>, 2006 <int>
…
