…
There are four variables in this non-tidy dataset: `country`, `event`, `year`, and `score`. To tidy the data, we'll need to pivot `vault_2012` through `floor_2016`. In contrast to other examples we've seen so far, though, each of these variable names contains _two_ values: a `event` value and a `year` value. If we `pivot_longer()` as usual, both of these values will get placed in the same cell:


```r
example_gymnastics_2 %>% 
  pivot_longer(
    cols = !country,
    names_to = "event_year",
    values_to = "score"
  )
#> # A tibble: 12 × 3
#>   country       event_year score
#>   <chr>         <chr>      <dbl>
#> 1 United States vault_2012  48.1
#> 2 United States floor_2012  45.4
#> 3 United States vault_2016  46.9
#> 4 United States floor_2016  46.0
#> 5 Russia        vault_2012  46.4
#> 6 Russia        floor_2012  41.6
#> # … with 6 more rows
```
…
We'll need to make the following two changes to our `pivot_longer()` call:

* Change `names_to` to be a vector of two names: `c("event", "year)`. This will tell `pivot_longer()` to create two variables from the column names instead of one.
* Use the `names_sep` argument to tell `pivot_longer()` what separates an `event` value from a `year` in each of the column names. Here, that's an underscore (`_`). 


```r
example_gymnastics_2 %>% 
  pivot_longer(
    cols = !country,
    names_to = c("event", "year"),
    names_sep = "_",
    values_to = "score"
  )
#> # A tibble: 12 × 4
#>   country       event year  score
#>   <chr>         <chr> <chr> <dbl>
#> 1 United States vault 2012   48.1
#> 2 United States floor 2012   45.4
#> 3 United States vault 2016   46.9
#> 4 United States floor 2016   46.0
#> 5 Russia        vault 2012   46.4
#> 6 Russia        floor 2012   41.6
#> # … with 6 more rows
```
…
`names_sep` is still `_`, but we'll need to change `names_to` to include `"gender"`. 


```r
example_gymnastics_3 %>% 
  pivot_longer(
    cols = !country,
    names_to = c("event", "year", "gender"),
    names_sep = "_",
    values_to = "score"
  )
#> # A tibble: 24 × 5
#>   country       event year  gender score
#>   <chr>         <chr> <chr> <chr>  <dbl>
#> 1 United States vault 2012  f       48.1
#> 2 United States vault 2012  m       46.6
#> 3 United States vault 2016  f       46.9
#> 4 United States vault 2016  m       45.9
#> 5 United States floor 2012  f       45.4
#> 6 United States floor 2012  m       45.3
#> # … with 18 more rows
```
…
`"([A-Za-z]+)"` matches only letters, so will pull out just `"vault"` or `"floor"`. `"(\\d+)"` matches digits and will pull out `2012` or `2016`. 

Here's the call to `pivot_longer()`:


```r
example_gymnastics_4 %>% 
  pivot_longer(
    cols = !country,
    names_to = c("event", "year"),
    names_pattern = "([A-Za-z]+)(\\d+)",
    values_to = "score"
  )
#> # A tibble: 12 × 4
#>   country       event year  score
#>   <chr>         <chr> <chr> <dbl>
#> 1 United States vault 2012   48.1
#> 2 United States floor 2012   45.4
#> 3 United States vault 2016   46.9
#> 4 United States floor 2016   46.0
#> 5 Russia        vault 2012   46.4
#> 6 Russia        floor 2012   41.6
#> # … with 6 more rows
```
…
### Multiple values

Earlier, we showed how you can create multiple columns from data stored in column names using `pivot_longer()`. Analogously, you can use `pivot_wider()` to create column names that combine values from multiple columns.

For example, take the following modified subset of the American Community Survey data from last chapter:


```r
example_acs_2
#> # A tibble: 8 × 5
#>   geoid name    variable    measure    value
#>   <chr> <chr>   <chr>       <chr>      <dbl>
#> 1 01    Alabama pop_renter  estimate 1434765
#> 2 01    Alabama pop_renter  error      16736
#> 3 01    Alabama median_rent estimate     747
#> 4 01    Alabama median_rent error          3
#> 5 13    Georgia pop_renter  estimate 3592422
#> 6 13    Georgia pop_renter  error      33385
#> # … with 2 more rows
```
…
