…
The data is still in HTML. Use `rvest::html_table()` to turn the output into a tibble.


```r
url_data %>% 
  read_html() %>% 
  html_element(css = css_selector) %>% 
  html_table()
#> # A tibble: 77 × 6
#>   Year    Country    `Excess Mortalit… `Excess Mortali… `Excess Mortali… Source 
#>   <chr>   <chr>      <chr>             <chr>            <chr>            <chr>  
#> 1 1846–52 Ireland    1,000,000         1,000,000        1,000,000        Ó Grád…
#> 2 1860-1  India      2,000,000         2,000,000        2,000,000        Kumar …
#> 3 1863-67 Cape Verde 30,000            30,000           30,000           Ó Grád…
#> 4 1866-7  India      961,043           961,043          961,043          Kumar …
#> 5 1868    Finland    100,000           100,000          100,000          Ó Grád…
#> 6 1868-70 India      1,500,000         1,500,000        1,500,000        Imperi…
#> # … with 71 more rows
```
…
